…
## )
attach (survival)
head(survival)
## # A tibble: 6 x 13
##    TIME Survival Gender Smoking Diabetes    BP Anaemia   Age    EF Sodium
##   <dbl>    <dbl>  <dbl>   <dbl>    <dbl> <dbl>   <dbl> <dbl> <dbl>  <dbl>
## 1    97        1      0       0        0     0       1    43     2      1
## 2   180        1      1       1        1     0       1    73     0      3
## 3    31        0      1       1        0     1       0    70     0      0
## 4    87        1      1       0        0     0       1    65     0      3
## 5   113        1      1       0        0     0       0    64     2      1
## 6    10        0      1       0        0     0       1    75     0      1
## # … with 3 more variables: `Serum Creatinine` <dbl>, platelets <dbl>, CPK <dbl>
na.omit(survival)
## # A tibble: 299 x 13
##     TIME Survival Gender Smoking Diabetes    BP Anaemia   Age    EF Sodium
##    <dbl>    <dbl>  <dbl>   <dbl>    <dbl> <dbl>   <dbl> <dbl> <dbl>  <dbl>
##  1    97        1      0       0        0     0       1    43     2      1
##  2   180        1      1       1        1     0       1    73     0      3
##  3    31        0      1       1        0     1       0    70     0      0
##  4    87        1      1       0        0     0       1    65     0      3
##  5   113        1      1       0        0     0       0    64     2      1
##  6    10        0      1       0        0     0       1    75     0      1
##  7   250        1      1       1        0     0       0    70     1      1
##  8    27        0      1       0        1     1       0    94     1      0
##  9    87        1      1       0        0     1       0    75     1      1
## 10    87        1      1       1        0     0       0    80     0      3
## # … with 289 more rows, and 3 more variables: `Serum Creatinine` <dbl>,
## #   platelets <dbl>, CPK <dbl>
…
